^C:\USERS\MICHU\SOURCE\REPOS\W4 ZADANIE DOMOWE\W4 ZADANIE DOMOWE\MAIN.CPP
C:\USERS\MICHU\SOURCE\REPOS\W4 ZADANIE DOMOWE\W4 ZADANIE DOMOWE\DEBUG\VC141.PDB
C:\USERS\MICHU\SOURCE\REPOS\W4 ZADANIE DOMOWE\W4 ZADANIE DOMOWE\DEBUG\VC141.IDB
C:\USERS\MICHU\SOURCE\REPOS\W4 ZADANIE DOMOWE\W4 ZADANIE DOMOWE\DEBUG\MAIN.OBJ
