^C:\USERS\MICHU\SOURCE\REPOS\W4 ZADANIE DOMOWE\W4 ZADANIE DOMOWE\DEBUG\MAIN.OBJ
C:\USERS\MICHU\SOURCE\REPOS\W4 ZADANIE DOMOWE\DEBUG\W4 ZADANIE DOMOWE.EXE
C:\USERS\MICHU\SOURCE\REPOS\W4 ZADANIE DOMOWE\DEBUG\W4 ZADANIE DOMOWE.ILK
C:\USERS\MICHU\SOURCE\REPOS\W4 ZADANIE DOMOWE\DEBUG\W4 ZADANIE DOMOWE.PDB
